module case

require (
	github.com/go-stack/stack v1.8.0 // indirect
	github.com/golang/snappy v0.0.1 // indirect
	github.com/google/go-cmp v0.2.0 // indirect
	github.com/gorilla/mux v1.7.1
	github.com/mongodb/mongo-go-driver v1.0.0
	github.com/op/go-logging v0.0.0-20160315200505-970db520ece7
	github.com/xdg/scram v0.0.0-20180814205039-7eeb5667e42c // indirect
	github.com/xdg/stringprep v1.0.0 // indirect
	go.mongodb.org/mongo-driver v1.0.0
	golang.org/x/crypto v0.0.0-20190411191339-88737f569e3a // indirect
	golang.org/x/sync v0.0.0-20190227155943-e225da77a7e6 // indirect
	golang.org/x/text v0.3.0 // indirect
)
